{
	"data" : {
		"skp.name":"samit",
		"skp.age":"33",
		"skp.designation":"engineer",
		"_SKP_A":"samit kumar patel A",
		"_SKP_B":"samit kumar patel B",
		"_SKP_C":"samit kumar patel C",
		"_SKP_D":"samit kumar patel D",
		"_SKP_E":"samit kumar patel E",
		"name.name":"hello",
		"age.age":"40",
		"abc.kjl":"kjl",
		"_SKP_F":"i am f",
		"_SKP_G":"i am g",
		"_SKP_H":"my name is H",
		"_SKP_I":"no name pls",
		"_SKP_J":"hello h",
		"hello_hello":"Halwin",
		"name.desig":"Diwali",
		"_SKP_SKP_K":"Paramater"
	}
}