{
	"my.name":"samit kumar patel",
	"my.surname":"patel",
	"my.firstname":"samit",
	"my.middlename":"kumar",
	"my.school":"bhsk",
	"my.village":"turei",
	"my.friend":"all",
	"my.designation":"engineer",
	"my.personal.hobby":"study"
}